\begin{tikzpicture}
	\begin{pgfonlayer}{nodelayer}
		\node [style=bullet, label={left:Explicit Refinement Types}] (0) at (-16, 0) {};
		\node [style=bullet, label={below:Low Level Refinement}] (1) at (-12.25, -3) {};
		\node [style=bullet, label=Generically Typed Lambda Calculus] (2) at (-6, 0) {};
		\node [style=bullet, label=Refinement Types with Universes] (3) at (8, 0) {};
		\node [style=bullet, label={below:Generic Low Level Refinement}] (4) at (1, -3) {};
		\node [style=bullet, label={135:Extensionality}] (5) at (-12.25, 6.75) {};
		\node [style=bullet, label={above:Extensional Type Inference}] (7) at (-1, 7) {};
		\node [style=bullet, label=Metatheory of Extensionality] (8) at (-1, 9) {};
		\node [style=bullet, label={above:SMT solver/tactic integration}] (9) at (-1, 11) {};
		\node [style=bullet, label={above:Nontermination}] (10) at (-1, 2.75) {};
		\node [style=bullet, label={right:isotope prover}] (11) at (9.5, 7) {};
		\node [style=bullet, label={right:isotope}] (12) at (14, 0) {};
		\node [style=bullet, label={above:Well-Founded Pattern Matching/Confluence}] (13) at (-1, 5) {};
	\end{pgfonlayer}
	\begin{pgfonlayer}{edgelayer}
		\draw [style=directed, in=-180, out=-75] (0) to (1);
		\draw [style=directed, in=-180, out=75] (0) to (5);
		\draw [style=directed] (0) to (2);
		\draw [style=directed] (1) to (4);
		\draw [style=directed, in=-180, out=-30] (2) to (4);
		\draw [style=directed] (2) to (3);
		\draw [style=directed, in=-180, out=-60] (5) to (10);
		\draw [style=directed] (5) to (7);
		\draw [style=directed, in=180, out=30] (5) to (8);
		\draw [style=directed, in=-180, out=60] (5) to (9);
		\draw [style=directed, in=-120, out=0] (10) to (11);
		\draw [style=directed] (7) to (11);
		\draw [style=directed, in=150, out=0] (8) to (11);
		\draw [style=directed, in=105, out=0] (9) to (11);
		\draw [style=directed, bend right=15] (4) to (12);
		\draw [style=directed, in=90, out=-30] (11) to (12);
		\draw [style=directed] (3) to (12);
		\draw [style=directed, in=180, out=-30] (5) to (13);
		\draw [style=directed, in=-150, out=0] (13) to (11);
	\end{pgfonlayer}
\end{tikzpicture}
